[
    {
        "id": 1,
        "name": "Task Master",
        "description": "Task Master Description"
    },
    {
        "id": 2,
        "name": "Conditional Task",
        "description": "Conditional Task Description"
    }
]